{
    "KPlugin": {
        "Authors": [
            {
                "Email": "???",
                "Name": "???",
                "Name[ca@valencia]": "???",
                "Name[ca]": "???",
                "Name[cs]": "???",
                "Name[de]": "???",
                "Name[el]": "???",
                "Name[en_GB]": "???",
                "Name[es]": "???",
                "Name[eu]": "???",
                "Name[fi]": "???",
                "Name[fr]": "???",
                "Name[ia]": "???",
                "Name[it]": "???",
                "Name[ko]": "???",
                "Name[nl]": "???",
                "Name[pl]": "???",
                "Name[pt]": "???",
                "Name[pt_BR]": "???",
                "Name[sl]": "???",
                "Name[sv]": "???",
                "Name[uk]": "???",
                "Name[x-test]": "xx???xx",
                "Name[zh_CN]": "？？？"
            }
        ],
        "Category": "AudioDecoder",
        "Description": "Decoding module to decode ??? files",
        "Description[ar]": "وحدة فكّ ترميز لفكّ ترميز ملفّات ؟؟؟",
        "Description[bg]": "Декодер за ??? файлове",
        "Description[bs]": "Modul za dekodiranje ??? datoteka",
        "Description[ca@valencia]": "Mòdul de descodificació per a descodificar fitxers ???",
        "Description[ca]": "Mòdul de descodificació per a descodificar fitxers ???",
        "Description[cs]": "Modul pro dekódování souborů ???",
        "Description[csb]": "Mòdul dekòdërëjący lopczi ???",
        "Description[da]": "Dekodermodul til dekodning af ???-filer",
        "Description[de]": "Dekodierungsmodul für ???-Dateien",
        "Description[el]": "Άρθρωμα αποκωδικοποίησης αρχείων ???",
        "Description[en_GB]": "Decoding module to decode ??? files",
        "Description[es]": "Descodificando módulo para descodificar archivos ???",
        "Description[et]": "??? failide dekodeerimise moodul",
        "Description[eu]": "??? fitxategiak deskodetzeko modulua",
        "Description[fi]": "???-tiedostojen purkumoduuli",
        "Description[fr]": "Module de décodage pour des fichiers audio au format « ??? »",
        "Description[ga]": "Modúl díchódaithe a dhíchódaíonn comhaid ???",
        "Description[gl]": "Módulo de descodificación de ficheiros ???",
        "Description[he]": "מודול המפענח קבצי ???",
        "Description[hne]": "??? फाइल ल डिकोड करे बर डिकोडिंग माड्यूल",
        "Description[hr]": "Dekoderski modul za dekodiranje ??? datoteka",
        "Description[hu]": "Dekódolómodul ???-fájlok dekódolásához",
        "Description[ia]": "Modulo decifrante per decifrar files ???",
        "Description[id]": "Modul decoding untuk mendekode file-file ???",
        "Description[it]": "Decodifica modulare dei file ???",
        "Description[ja]": "??? ファイルをデコードするモジュール",
        "Description[kk]": "??? файлдарының декодер модулі",
        "Description[km]": "ម៉ូឌុល​ឌិកូដ សម្រាប់​ឌិកូដ​ឯកសារ ???",
        "Description[ko]": "??? 파일 디코딩 모듈",
        "Description[lt]": "Dekodavimo modulis dekoduoti ??? failus",
        "Description[lv]": "Dekodēšanas modelis ??? failiem",
        "Description[mr]": "??? फाईल्स डीकोड करण्याकरिता डीकोडिंग विभाग",
        "Description[nb]": "Modul som dekoder ??? filer",
        "Description[nds]": "Dekodeermoduul för \"???\"-Dateien",
        "Description[nl]": "Module voor het decoderen van ???-bestanden",
        "Description[nn]": "Modul for dekoding av ???-filer",
        "Description[pl]": "Moduł dekodujący pliki ???",
        "Description[pt]": "Módulo de descodificação de ficheiros ???",
        "Description[pt_BR]": "Módulo de decodificação de arquivos ???",
        "Description[ro]": "Modul de decodare pentru decodarea fișierelor ???",
        "Description[ru]": "Модуль декодирования файлов ???",
        "Description[sk]": "Modul pre dekódovanie súborov ???",
        "Description[sl]": "Dekodirni modul za dekodiranje datotek ???",
        "Description[sr@ijekavian]": "Модул за декодирање ??? фајлова",
        "Description[sr@ijekavianlatin]": "Modul za dekodiranje ??? fajlova",
        "Description[sr@latin]": "Modul za dekodiranje ??? fajlova",
        "Description[sr]": "Модул за декодирање ??? фајлова",
        "Description[sv]": "Avkodningsmodul för att avkoda ???-filer",
        "Description[th]": "มอดูลถอดรหัสแฟ้มประเภท ???",
        "Description[tr]": "??? dosyalarının kodlarını çözen kod çözme modülü",
        "Description[uk]": "Модуль декодування файлів ???",
        "Description[x-test]": "xxDecoding module to decode ??? filesxx",
        "Description[zh_CN]": "用于解码 ??? 文件的解码模块",
        "Description[zh_TW]": "解碼 ??? 檔案的模組",
        "Id": "<name>",
        "License": "???",
        "Name": "K3b ??? Decoder",
        "Name[bg]": "??? декодер (K3b)",
        "Name[bs]": "??? Dekoder za K3b",
        "Name[ca@valencia]": "Descodificador ??? del K3b",
        "Name[ca]": "Descodificador ??? del K3b",
        "Name[cs]": "K3b ??? dekodér",
        "Name[csb]": "Dekòder dlô k3b???",
        "Name[da]": "K3b ???-dekoder",
        "Name[de]": "???-Dekodierer",
        "Name[el]": "Αποκωδικοποιητής ??? του K3b",
        "Name[en_GB]": "K3b ??? Decoder",
        "Name[es]": "Descodificador ??? de K3b",
        "Name[et]": "K3b ??? dekodeerija",
        "Name[eu]": "K3b ??? deskodetzailea",
        "Name[fi]": "K3b:n ???-purkaja",
        "Name[fr]": "Décodeur « ??? » pour K3b",
        "Name[ga]": "Díchódóir ??? K3b",
        "Name[gl]": "Descodificador ??? para K3b",
        "Name[he]": "מפענח ??? של K3b",
        "Name[hne]": "के3बी ??? डिकोडर",
        "Name[hr]": "K3b-ov dekoder ???",
        "Name[hu]": "???-dekódoló a K3b-hez",
        "Name[ia]": "Decifrator ??? de K3b",
        "Name[id]": "Dekoder ??? K3b",
        "Name[is]": "K3b ??? afkóðari",
        "Name[it]": "Decodificatore ??? di K3b",
        "Name[ja]": "K3b ??? デコーダ",
        "Name[kk]": "K3b ??? декодері",
        "Name[km]": "ឌិកូឌ័រ​ ??? របស់ K3b",
        "Name[ko]": "K3b ??? 디코더",
        "Name[lt]": "K3b ??? dekoderis",
        "Name[lv]": "K3b ??? dekoderis",
        "Name[mr]": "के3बी ??? डीकोडर",
        "Name[nb]": "K3b ??? Decoder",
        "Name[nds]": "???-Dekoderer för K3b",
        "Name[nl]": "K3b ???-decoder",
        "Name[nn]": "???-dekodar for K3b",
        "Name[pa]": "K3b ??? ਡੀਕੋਡਰ",
        "Name[pl]": "Dekoder ??? dla K3b",
        "Name[pt]": "Descodificador ??? do K3b",
        "Name[pt_BR]": "Decodificador ??? do K3b",
        "Name[ro]": "Decodor K3b ???",
        "Name[ru]": "Декодер ???",
        "Name[sk]": "K3b ??? dekodér",
        "Name[sl]": "K3b-jev dekodirnik ???",
        "Name[sq]": "K3b ??? Dekoder",
        "Name[sr@ijekavian]": "??? декодер за К3б",
        "Name[sr@ijekavianlatin]": "??? dekoder za K3b",
        "Name[sr@latin]": "??? dekoder za K3b",
        "Name[sr]": "??? декодер за К3б",
        "Name[sv]": "K3b ???-avkodare",
        "Name[th]": "K3b - ตัวถอดรหัส ???",
        "Name[tr]": "K3b ??? Çözücü",
        "Name[uk]": "Декодер ??? для K3b",
        "Name[x-test]": "xxK3b ??? Decoderxx",
        "Name[zh_CN]": "K3b ??? 解码器",
        "Name[zh_TW]": "K3b ??? 解碼器",
        "Version": "1.0"
    }
}
